{
  "bugs": {
    "0": {
      "comments": [
        {
          "attachment_id": null,
          "bug_id": 0,
          "count": 0,
          "creation_time": "2005-04-10T18:24:26Z",
          "creator": "bugzilla-admin@wireshark.org",
          "id": 0,
          "is_private": true,
          "tags": [],
          "text": "The contents of this bug were unavailable during migration.",
          "time": "2005-04-10T18:24:26Z"
        }
      ]
    }
  },
  "comments": {}
}
