<?xml version="1.0" encoding="UTF-8" standalone="no"?>
<svg
   xmlns:dc="http://purl.org/dc/elements/1.1/"
   xmlns:cc="http://creativecommons.org/ns#"
   xmlns:rdf="http://www.w3.org/1999/02/22-rdf-syntax-ns#"
   xmlns:svg="http://www.w3.org/2000/svg"
   xmlns="http://www.w3.org/2000/svg"
   xmlns:xlink="http://www.w3.org/1999/xlink"
   xmlns:sodipodi="http://sodipodi.sourceforge.net/DTD/sodipodi-0.dtd"
   xmlns:inkscape="http://www.inkscape.org/namespaces/inkscape"
   width="180"
   height="180"
   viewBox="0 0 47.6244 47.6244"
   version="1.1"
   id="svg8"
   inkscape:export-filename="/Users/gerald/Development/ws-gitlab-migration/wsglu-avatar.png"
   inkscape:export-xdpi="96"
   inkscape:export-ydpi="96"
   inkscape:version="1.0 (4035a4f, 2020-05-01)"
   sodipodi:docname="wsglu-avatar.svg">
  <defs
     id="defs2" />
  <sodipodi:namedview
     id="base"
     pagecolor="#ffffff"
     bordercolor="#666666"
     borderopacity="1.0"
     inkscape:pageopacity="0.0"
     inkscape:pageshadow="2"
     inkscape:zoom="4.0111111"
     inkscape:cx="90"
     inkscape:cy="90"
     inkscape:document-units="px"
     inkscape:current-layer="layer1"
     inkscape:document-rotation="0"
     showgrid="false"
     units="px"
     inkscape:window-width="1252"
     inkscape:window-height="1174"
     inkscape:window-x="619"
     inkscape:window-y="43"
     inkscape:window-maximized="0" />
  <metadata
     id="metadata5">
    <rdf:RDF>
      <cc:Work
         rdf:about="">
        <dc:format>image/svg+xml</dc:format>
        <dc:type
           rdf:resource="http://purl.org/dc/dcmitype/StillImage" />
        <dc:title />
      </cc:Work>
    </rdf:RDF>
  </metadata>
  <g
     inkscape:label="Layer 1"
     inkscape:groupmode="layer"
     id="layer1">
    <image
       y="6.8790793"
       x="6.8790793"
       width="33.866241"
       height="33.866241"
       preserveAspectRatio="none"
       xlink:href="data:image/png;base64,iVBORw0KGgoAAAANSUhEUgAAAIAAAACACAYAAADDPmHLAAAAGXRFWHRTb2Z0d2FyZQBBZG9iZSBJ bWFnZVJlYWR5ccllPAAAO+ZJREFUeAHsmgWU3Ma2RXdJTcNjtmNmCDMzMzMzMy94zMzMzPz58fvM GGaO2T3TIKr7JZW0rEm35Q4nM33Xui4Zx/Y+59StUqtNmzYx/qtblmXR399PporAQFcAE6REhEql QrlczgpgsCuACVZRCkRpABS6CfAmKxW1AusFrVS82OHaS7QSV0GgiKmq4zPi+BInQJQEiQD63mAC 6FYKuBARteLuB6YEmtm+ZlbdY3bYM0ccZlYdmRaufSMuU0ccsWsuk+sepaYPboDlBmJrgfnDqnro IvWHpVPU++oe/9PbF6dAAeh9nQXQhV2I2o5tOyiwwPFZuqnJqtU1WfnsCAuf3Cizn6rK5Ker0vf8 KKyvCxubMOoJjk/cgQZJ9nkRkCQvFOkzTOtT3LqftemqPaxzsct/VipXCkDPayeAbhlnW1C0KAss aXjstKbO7k9slJ0fXCeLw5718DqxQuCsrkG1qXEjwAJW++jHwqwka7ZESAs3gLoHHzyqMHrd3sXd VKn/fhT9r7IAunt2wY6hF4EVIw77hU7e//61suv/Ps+i+9ZKIYQfu7rmQaAlAy1xs+T/+dAKX5Jv JPsDilhMQxXFX19S/Nqy2f0Xg91boFuvhsujnt702ffpKofft0YO/O/nZfm9q8V+PAS+oRnBMIAV BnLZErQybg90RgzSnnxKOet2GeP87PcVgmApeGoT/O4R66Bls3Uv2M4rJIDuXl40A9ucmsthj2zg +P9+Tvb/7+eZ9sh6YU0NGp7gayEIBK0Th2qJgeuEmE6eRRO2ISqSAZ5xvdAKXKfgxwhCkEyMBL7w 1EY9BPQA9ZcsgG4Z6AWbKQ2PIx5Yy+n/+RwH/89qGX5yE4w44AaC5wtO2G7Snhb8wIDWCUXJgktF ICTdJs7JDH0t7k+wt50FFGioFHABD+AlCKAb8SUbW0sc7+f++7Mc95/Pss2TVWj6xoWeD66vqblC w9M4nsQ/5gWCL6B1Ck3GulrG7v1aNv86aQWfhdsCvF0Jgm3DbnPsJ7TrjVqlYqcC6FbBisHPGXE5 79+ekbP+/gm144PrDXQ7Iai1ZtSRELym7gpNz7jfCyCIWgw8AzZDTkmLuxP4WZfHpVuTIPuQOy02 HOHolUUOWGR/pu74uq8obOUU0K2SmeJ3emaEa/72cTn1H55k8uqain+8UoRAE8MedXTSQjOCnzpe J3Gv08g3q7QFmUkGIQNeOnJ4XgUaeoqKv7mi9692nG0fU3e07u3t7SbAlqpciON+v4fWyY1/9RAn /PNTlJoBDJUVU3oT8F4IvCmMOGE3E9f7xK73gwR6dq8nacmCzgpgbNTT8vwSBaDAcYTbDizXd5tn 31RtiFZK4bruFgTQBb///63m1p/fq0/816dBKRXfpE0OW2uN40PNEarNqI3z624a90KgowbJuljG QpZ0zYI2a4eghU7L8WDlTJsb9i99pOHKfSQVBEF2C+hGfdFm13tWy93f+x859R+fFEq2YuaARX8J FGaqr7lEbo/Ah6vZ7xue4CauD9IhLxvn7WJd2iMUkVbOyWXBS60QOl87p+/xC3cv7VBtSpXN1U0A 24LeIgsfWc+d3/xPffFvHpZSwVbMHrIYLEMhuZxpetE+bxxfbYTwI9enQ55vHJ+6XieEJRe4kFRW IPlml5cG/8AlRU7fqfTWUScD39TETQCloK9E//o6N3znv/QtP/xfPcUJYN6wxeQeRbmgUAKuljju I+BJ5BvXu6nrDXidme4le7ZvC1zax7y0IS8vPf5FwA/gZ5cN/PvRq4p7hAIIACZ8AlQKRHXiz+/R 7/rsP+ntnh6BuUOKRf2KvpLCthRaQ8MXakncV82EnxzvDPx0r0/B6xanSyvlTCLkqiCPu+pMA01H OHb7EkesKL6n5hr4E1oAtnH9qv99Xt724b8NTv/TY8K0EPqq6RbDlcT1EMOtuWbCrzrJXh+ujSTy /fR4F7egM6O6bMm5JhXyYUseXHlRAaAFigXhpgMrf29b/EwEJrQAeotYjs9NH/8H/dbP/5M/GAgs mWIxtc+iv6woWopAJNnrdXK0M8/G9Ro3AD+73yOZc3p76Igg0hZ2e8jy0qFny3GFY7YrR/t/4v4J KgBLQX+JZeHt3cff/hv/qH95WodxbzFrwGJyr0VP0fwaNzCgR4zjw9W4Pr7NiyM/43oRE/lZYK23 OUguQMk+dw5ZpKNfYiu4er/KP9sWfyECE1IA5QKIcMEn/iH48Ef/zp8qAsunWkzrsxnqUVRs0EAj ins3cXxmr29ErvfMoJe90RMRpI3TwazSFrp0BlukQ+j57t9vSYlDl5U+WndFwwQUwECZoUfXy0fu /mv/kr95MGCbQRW2HUf+QBT5NvhBBNm43dzoRSkQtpMMeoEQxPBls+ulDXQk4ZQDXXJh50POzgYd lGi4eO+eJ3qK/LzahAklANuKB71df3Wv/tIdf+nttHpUWDTJYsaAzZS+ZMpXgutDLXa9cfyIk4DP 3Oh5Y65zs7xljJNF8oF3BFs6jH4ht1wfls2wOXa78vfqrjRggghAII50gQve9Vv/kx/5W3+wtwhL p9hM74/2e0VvyfzKpo8Z9BLX15rpoAdOIPi+jl0f6MwHNF5ob8lylvzoFukAdl5S0HEFrua0nfuc 6QPqq9WGMGEE0F/CWj3K+2/6M/e2X94TRb4VX+NG8CeF8HsKoIUIsoEfdTP79k5wY+dr/PTVbSDo NuBFsgp4qdAFJB9y+2PilueIQGCwT3HarpW/cX3uAyaGAAYrauZ/PKO/cMVPnOPveV6YP2zATx8I 4feYV7daNr+2rTbDNb7Ry8LX6fmeIAAtGhFpYSEiIJIP/SUBl/wk6CANXFc4fEWZ7WYVvtr0hXEv AKWIBrodf3GP/71rf+6uqDZhwaQo8lUMfziEX7SIoTbc9FInaqGRnO2d1PnJwBdoQWuNtPmIrbRA lM6hC5l6scNfHsyxf9Zpu1QeK9rqLxveOBeAraC3pA757D96373rL7zpBRvmDlvMiOD3W/Exr2Dg m6NdU4zznSx8jeuDH8MXA18kO9RlXN+p2/Og5w+AL/1uADwNcyYXOGRl5ccNT9eB8SuACGypoE5+ +6/db7/3917PcMViegJ+xoBisGLguwHUksiPnG/g69T5+AZ+2PoFk76YHjv5dwq9gxNBe9jtwHb6 a3xXc/DyHpkzyf5htL2NWwEUbVBw6c2/dD/32X/wCtP6o+tcxYwk9odC+HYE309e3zaSPd/VNByd Dnv46Z2+Ti93QLIuFZBW8K2QpQXU1o+ByNZBS+6vaykF4Yufyr0K/h0YnwIo2RAIV1/7M/cz3/h3 P3R7CL8XA3/Qjj+uZSsDP311u6mhoxRIYj+BH+gk8jHwESQDSSTP8e3d3n7Ik60A72R4JH9bUMTz y+xJNnsvLv+q6Yk3LgVQKoAXcONlP3I+9sP/DmL4U3oi+BYzUvgWscNHGsLGRgg/iv1mYD6u5aUf 3DDHPC0J/Cy8NAV0Dvh8eC3Qc4DnvxBS2T8vp8TE/16Le0MRFP687mjGnQBS+Jf+MIT//9xdBXTc yLK9LQ2Z4+y+wGNmxs/MzMzMzMzMzMz4mHGZeTeMC2FwYsceSd31XaoeHUWntmb+OGCv9+hIVpxN 4lv31q3q6vb9HttmHDYz82e41EtL2W+5CP5KCf7q5atBzX7G4Ico93XWX2zuaDjwNtt10A3ASXf6 zThywwuBT3zRxKE0wW0EPLECoJMOwM9K8FnuN01A6vzptCr1srK7R1iI4J8rpZ+ZHyL4qOX6BijS 5x8D+DFAJ10hdKB1n9Ec956dTFj+r+sXtIwnUgAwsAH4vm/7n+x3//O+YhVw3t0KbJlKsVU6fBIg ZV8/xJzvax0+z2YvMr8B/ACMQIopJxV4m+2k/F4lIJRYUIAe2Q/kOeHVT+/hOVva7+IU94QJgFa5 2dJ93Xe8sf87/3J3ser0uePH49mxwzeZoJsKA5ZzkgZPBH9phdDv+9jcIQSd9cL8tQM/Juhkgz3q 1p8i4A3P6a5M99xN55afIAGQOJ7bc5/5I2/P/vyvbyvcNZOEmZ7DtSX4abmww3N9FKd1l/q+6vAx +Mz8LILvSWG9AK/LvWrULODHBF1jvw60LQIJ8OHP7e0gwiEAGz8AHMAjWq/9tQ/k//Lb12cdzvdT 5W4c6e/zku5kW2b3+p4HN0TuBXxu8njkhQ6+uPsG+AKiDiCNAbwK+piAk700yOo3P+Xw8qd1bskK Ck+EAGCmP+Pv7iz+66ffnc3OdspgwOYJBp/X8xNMRfBZ3pcFfHH7K76c4MnzuC2LQgNkqmOqM5we D3gtv1fvDNBt8ze8UWS9kmbWs5/W4xbwzfz92OgBwDl++r17/H98z5v6z+gkVDJ/rpdAun0JZjrS 6CmIRPqz1SvW+kuDbdgl8wOoCb7cTNbbjLfYbjNdB3TEJlH1qKSWPOBlT+34mV5yN5NgwwYAoZzi wUPHwl9/43/1X891+/zkwPTxJWNcaSIqzkBfKMHngQ5flnsrfan1fYjgUx1YDSTSVWB84G3Q5d2a u4LN3/uKp/cedQ77AWzcAGA3f3YZP7cK/pc8fMbL6FaX27wywDnbS8pyjxh8L1uyZKLHY1GWdmU9 PwQEFXyL9SbwijJYwOtMH6sraHsAmfxtAy9+Smcnf0s2bAAkriz3vvz739L/2VsOFNg8LSaPnT7L Pjd6em0AkIMWVmqyL50+MX4yv2eBb5o8m/XDgTflXQ880wMMHQz1gbB5KsWztrTv44pnwwbAdM+9 4tc/kP/5P92ZYa4s77jTJ+DPl3P70h7Lg7R6l2Ren5kfF3mi6y+7fA0AaajkjwO8zmzbQ9itYJAC tPKi9mXeE5s/PGm29YDfoAHAjn/mnTv9P/z8e/ozkx2U4M92GXzZtMETvIljcGPe74cK/DjCLXP7 JfihCRAo2JJvg2+aRh14vSs4hg/AcANYBDzrSR3M9JJd/D3ZcAHAjZxDp+n3v+uNKy9n+ea9eWwE N5fgp5jtJkjj1uyskJJvqRrp8rjQ9+gPSj4fmnN7tcN0gs5aGsr6BnNt4E22kwm68m6ESsATnrO1 fT5N3OE1dVyvVt4nuK/9/resfP2+k76S+vmJpGz4zMVBToIs4a5kg4aPXNz543ci/cohO2FsyR8u 96MbRwNgWsMgCFX3Z23pHCHQyY0WAJz3X/BbH8x+/40PZKXD76ZS8rHsz0/ICDdB2M0sX8ql4bNY W9/PGHwfLp7XK1OBLfmR+bbcrxl4HXT9c0MZVODlt7gUePq17UdDQLaRAoDzevumA/4vf/G9/Tlm PYMfu32S97vS6fNe8j539y6I8asme7J8MMdXY3Soy7YG/uisl+exgP//g06mYqgfFKgsk7dtah3y AdgwAdBKwPvwfvIH3tL/6NU75nsJJjoAD3Vy7p/pybRvIDlocYXBF/ln2ed7tb4fQgXA6OArzCYa kfVrA14BnUaQe7289IEXx1JcM5Me5ucNEwCTHfeGX3h7/ydvPVRgbiJBtw3Mdhl8yfvd2OzJGXxm f+X8RfZXSvaHi0/VDqSDr4BmS77FeuWgHxN4he0a6GQcBmTgysF/zXSKmYn00UAbQwFY5jvv2+P/ 4A9uyFqTcXfuVEeMH1+Dc8sLTwy+BEAWT+GK4Ocl+IpkU3h8xgYaLvkjsN5u5pDJdj1YLMDtMpA8 YX4qxWQnOVJsBAVg6V9Yoe//sXes9vnLwxaBiTbKhZ55PqGjI5WBDyL9Aj7Lv4/3gH7V7YvfzKry GwN8XfJtw6iaO7sEtFVCAW7UXcOBWP7RbrmTeX/9BwBL/wt+7d3ZT91xuCjdfid1mOlKp4+DodMa SH/Fflzgq0+R/SGWfI3TNQXINYAfbNbrQNrAExku3t4kMvIpIiFwAORJ4s6smZxXAHzcftj/3u/f 0J/udUT6J0X6Y5/fAQx+Kf1yENMy37P4XIIvo9zS7TPYOTL48t4G35Z7/feZPkAB3dhNZDaFyhSw kjicW9cBILJOX/4z78k+jefVBidxzXUFfJb+1JV5X6S/QCX/gytj1x/P16ca+LQm8EeuFIw8rwBv j47b6cAAW0sVc5PpMoCl9RwAbPzm/+b2/NfeuTPHtLB/9b4K/iTv3wPa8Tw+YT+iAoRK9vuZlx+a 5KlW9j0e+AEIMMC3KwUlNSjga3KvdxubACosH2sfoTwFTE+kiwCydRsADPajC/QTv/r+7OntVGb3 J5j9E67cyDHRTuJol5g+uQIDL/c87txtgh90AG3wK3BGVg2QIfeaOujAG8ExPD2QMRo21XMrRCjW awBwb/9lv3dD/7v3HveYjb396a7U+9PdKP1BzuNZ4SuvjmQT9setXCE0xrvWIvv671Xe26y3yz67 CaQHiw64dWrIRCdx/LQeA4DBx52P+N/5y1vzLhu/VgJmvLC/Kz4gxJKvnwP9Evgg4OeDbt/gsAZU skyN0e01gS+GcjTwdblXWG4sPumqMPwsQR1l9NrJMhH8ugsA58rr83/9g9knLVwIDLqUfb0o/R0H RyL98pMvBfCVguSeifTzr4dACvihwcY1g68AZUl+9aykChv44aCTHQSD30mBz0c4DyCstwDg7l73 XbuKn3/jAwU/oyUneXAgyPl8SWz4+Cj3Ffjs/kURRPrrR6xq4DOIlxh87feRLfe6ItjA26BrU0KN ZwpIEwSstxSQODCrv+E3P5S9jM3bZFvkfrbHV73m5/JOUoD8OLXI/lwme/OLpL8ZCBqI44Af4n2o 5D++QcRInkABftgSMtXv9vt1FADM+Ll/v7f4iQ/u9avP0gKe7Aj401ENAslwZ+aDAM89gOj68zjX T74u/Uq51wBxreAbkq8AqoCtBIiArrWG9Ra0/uvGqiCtswBIEmAxo6/53euzpzpHLFEXs5/RBxhg lv8K/LwygJIWfBjwJeiHLgQFfFxW8HWl0J51qVcAbqSYoVNE6jHk6yoAmOFTf3t7/n23HSrKMq+V 8IyfDHlOteN8XxD2yzGsQYIheoBqJ29A44CmoHyz5E6NHoAFflQPA0wtOHTw9QCxgVdBH2OCqJYW 3boJgFRW+77uj27Kn83PDPZgwnembP/KX7oIAnRRAo7ynpUqwM8Bvl6T112+0cdvKILRnh2W84Mq 7brk66y31wuUgDK9gTEhFMrKqQcZnqKrHQDM9JlV9v/IXQ8P2J9w7mfwV+8D9gOFsL+6xASKGhSh Yrwu7brpq4FfAa00eUYCX18hHJ31OrPtJWUbdKUacOWdTbSfdYJfflUDIEnAJ3J9xZ/cnD+9Yn8b XPLxFad8JLeLzAcJgMr9y/vgSZd+BcgYHMo3Xfs9NBz86mMM8LWZPjKAV5pN9ud6CuCSGXBYM35r Zn/bTbxlh/+BOw8XmGhL7i+df1fYn0CwKCXf1zwAN4BqR7SSZpZIM0ZK79/8PTQMfKW60MAP1Xt6 PPDJAJ80VQiNgAl8V9Yvmv8e3g5f8Lc6uaoeIHHl8Sxf8Oe3ZM93TtjPzn+m48pJ304CAJH9deMX wc9yqlb6KukPFSKG9DcYbzZ6oAAwDvia0aN4N4C3TaTBdPX7ILdAWFwupuDQAdC/WgHATE/fvqP4 /psP+nK6N2X2tzn3l79WTfgW8RBmvmcN6S8q9qutXqXeV6Rf7xEoLlozl4rsq2bPYH0zAFRDaPQW QAbgSg8gBJxfyicBdAGcvyoB4BjcgE/6q9vy15RdvxbQTZn5surH/X8asD9Qrf5nAyNB4KXlWwOY 9Favmvf5anydURGokgwbfDvf23I/HHh9hZCgLx41K5qzi3kPhBkAV2dnEJd5tz/iv/c9u4uK/Xxn 4zfRFvZTPMW6qKRfZL9if0BdUi3pHzZJo/uHptwHBaDRwTdyuVLi6bW/2l7WQbfPETp7Pu96wuxV 8wDtBC/7hzvzT+bBTZZ8ZvxURw526Ar6UfbZ8EHAl36/nNRdsX/AcN3EGdKv5H1jRi8YHcO1g6+z XksHGvCKugw7Q+jUQj8JgTattRHQGvfo1n2nwne88cGi1W2z+WPWC/ur3N9gf1+GPhrO32a/yQay vl6b3QsjgA8LfDvf66y3gScytpwbnztWgAz9LDzJCdeuaBnI8r/9vx8ovvzo2RB/7DoDLwrQSSUm PTHIVDV/shJ8VD+aJdDo7LddvyX9Wq1Pg5vCzDAO+Obn1UWhVj6G2tcHZbGp/v8JcoHiFQBHOH2u z1vktznnrmwfgPE9u0xf9a9353NpCiRODm2c7kjd34oR6QMqA5j5Wu4vdPaDTPYruVMv7+xhjKCD TtV9HPAbkh+aUVsrHxXglf6BAF4DvR4IRGX5vbCYcSm4PUmucABMdFz7Q/v9195/xHPHT8a9ytwv PX8HQhjk/yBgx6ZPPKt/wPgG+6GXfeaKmrV6RmQHF2ngA6QfD9sARwVfaeBE1mvNHp3tCuj1YEMM AMLiUrHqA7KnpIm7ciYwnmr+sf96T/4SZngKoBvN32Rc7wcosj+C76uhjzjjV2OYCpBm8vR3cjeO ZlGDSw8MuTUbQhr4WrOIDNbbPiM+qAZQ/34IDssrGU6cWXlamm66cgHA5m/3yfCN79sj7Ofo4/t0 PN+HgzHU5L8IVc+/Wu4lAcZgv5L77RJJTxV6108fESd1j6FcITT9h24qGymFtKqiGViwCKCnwoqI ecCjJy5sT1yJYXFFUkB31fy95aHiM06eD2gnA/MnVzutsZ+CsL+q/eXZq3X/WOy3R7AtRWl2DqF0 H6s7aeArrK5LPkB6k6gJvl5JQDF/TVPJ773H4aNLW51z81dEAZjdi336ov+5P5+tmz+W/x4PfCCa P748UITa9M+A/UHJ/bR29uuBMar0E98awRZ0AC3mNyRfAdqeI7Tfq/n40JGluUC0DcCJy64AvbZz tz8SvvzuR0MJfCvhd8x+lKUgcLH0Fz7K/2C5NzTVl0YYhR6J/XbDp7rpzR5SU4fi9humsdmObho9 HfyGiVQMn7xvrAxCuRLg4NGltJ+FZzh3+asABvx5b3wgfy0DmiYMukj/BLM/gfT9SQKgGvsupPYv GvJPwIh1v81+eTYZqn2tzqw6a0NTJbScrYAPQ/Kbjr8OPBTgAW0pWP6jUCL3yLFFLCzmz19LJZCM CD6OL9LnvHOXb7db/JtkxHuqXfoCWfOP7K/Mn682eETzRwagChijsB+WVNLgZkg/aRtMmrNmhtuP 4EMDn+9BaQnrJaAOvFw0aCLVAiZJgBNnlnH89PIL0zS5vAHA8n/TQf9Fe0/6stZvp3LCx0Tc9kUU 2V/V/Zr8kwau3vO32a+BaaQVlfXKzwG28r4OvnyZ4RWaQGv1PXTgCTXQ5evqf0fxZIsZ+4AXtNLL rAAOeMlbdhSvCV7MX+n+264q/agm/cL+6P6rn9kz3PwpH+Oxn5rPiutXyzJYed8AH8rvr0pHu1kk zyrwjY5hIxMQHD9kHrsPLzw7TdzUZQsAZvhj58Lnf2Bv0eqUCz+yzXuiI2UgGHwS1+9rI1/VD28I ejkMkL3eP7rzt8u++kXQjV9V7xszB0oJWbFZN3t1cJX+vy7zMYCUFKGNjQXsOHB2KwFPW3MAGPKf 3HI4fO6hM4OFH6DXEQ+QRvkvhOnC/Ir9QNGQf5XR9vm5dt2v536F5cZ7zZtoeb3Z4SO1PzD886bp RVPmtdPLSG8Vpw47Dy60V/r+hYm7TAHggBe9Y2fxihCE/Z1S/qUF7AAEqlq/tWHPwPdq3k8HaiTz Z5yjp5hk/VgW0/gZs/5yV2p95ecKN2Rfn1VoBhjVlUAD3lgP4AeXOuw9vLBqBFdeMa4RTIbJ/7HF 8JnXHfCtdiu2flsy8VPJfx38AL5H84dY+lnyD8X8WQOdxjl7tvPX5+tM9tdArRx/g5WAkvPVlUYF fI31CtsVNSBiovkygAIFHDu9/Kp0TCPYGtL6dXfu859z4NTFzZ9um81gxX4Z/GiCH6L5M+WfdNNn pwrFeKkpRGE1VPbrplGfDlbHwBXw5XO9B0HqGJnyTgnuEAKcc3jGtmk8ecsUXvGCa3lR6KUOrgug f0kDIE3w7Pfu8a8tCkIahz0m2nLnj1CVflL3V1u9Bps8w+iHIOrlIUaanDXYb+ywVRtFCmB66tAD hD9U2TfAN9vA1e+hOGCzaaaDz/zoZ2J2uoOTZ5bxtnftQTsJz/j0j3zqswHsuFQBIEMHK/SJH9pf dFutaua/mgFABL8o2R+k/++jIazLP8iQfxpT/i3T17hHoOzcb8/tE7RNGlpZSYbhq0pHxSTqO6EL H0CFR6fTwqtesgUvetY87nroOM6eX8HN9x7B4SPnUCxmuOW+Y63lFf+KxLkdgejSBACDfccj/tN3 nQj8LPLfctL5c65ifwyCmP+j/Os/jdugv+b+zS9RWKiXmBb7ldEwY4/fUOmv3is5RwNf3TwiVZWs pj39qXN4yXPmsevgGSxdyHDi9AUsnO/jvh3HS4a2WgncRAu7D57FoycWP/zp26b/LcsvUQC0U2y6 4YD/CJ76ne2J6euV8o8o/wE+VPW/pAEJiNpp3tTAQUkFpvu3WK2912Vfq/t1CVeAM8yiolRKAAqo NvhSLfkQMNlN8cwnz+GFz9yEs+f6mOq18JQtU7hnxwk8sOsEHAPfTlAUHr4IZRAUeYGH9p15/XOf OucyBmGtASDn9+H1HzrgtziHavGn15ZniPmLFw0aQZX8h6bpNcecx5V/+3Qtnc3WyRt62af/eUHd rFHddfCVFUmUoIfC45r5HnrtFPNzXXz8656KoyeXcP/Rk7jl3iOiCAMv4gPStFWqQ557vOg51+CT PvwZOPjo+ZcQsA3AkTUHQCsFHlkIn3zPY16RfzF/ocZ2CYQgd2pia5Z/CrDGh4qHLv/qh85chf0w 2K8qgeb4debHqyhCWVbPTnXw1K2T2LJ5Ak/bMo2jp5bwX+/ejWOnLiBkvjRfSQLMTXfxrFXQue// omdvxvxcD/sfPouJbhvdToqZyc7M0nL+SudwhGiNAdBNnbv3Mf9xR84FTHHNn4j8t1NRB1/V/2gE weB0r5r06iCZAMnwSIgd2hB3GQ2qigBHcnB0EtUqccPk3+j/a1Gls18B3upIBtXNs3R3Wgm2Xzv5 f6R9BXjc5tb02MtMZuYwMydlZmb68DIz34+ZLzNjmTFNmrgNc5zEjGvY9TJ44380j/2kkP6X0upZ klayZs6ZOed9V1Itf9Xmelh5YvccHVG053JTxt+jdea0hiS9Uer+hWvrkM0V9D11lV7YCfrzO7o0 zX7PkUEUc6NtKyu2loecT7EJ96cRgIxr2NldWHjWIKAVsHAt20wfQH5WaX9mEfDnxvzpQs+Hw7vr v7CYJY72YdwMEX5nsYCuDJiRm7l+YNBtxkQ8rzuFF7izZNq4dewUEqmCtufCk2cs0LZFv0fp9+4D MzhPw+fdRglxXtNHkoqgPFZFs8NpRmXIrb93PqM45LPi6OkJjIwlBKBx7BesrkV9pQdn+iIwmjtV pW6c6omisdqL517rwf6jw6igJ2hrCCJD7e8biiObykmDD58a31xX6SkiAab/aAIwhRh35V6/u69g 5wEoTdlMXM6N/M1UAFreUg3Mvsb073XnbD5o2FjzC8t9FrRUWI3nuhtGOJoX6BPxKcTTBXkPvlZG cFiLSQaL+g4OWxHSmbPwkjBD4zmuT7cczXLdAokjQogY5uJ3/xHVOUPP9qokTiZG2xWpfDMexXyR vhjGcYisBLeAYn10bmIIA0j3MrRaikTekNeG1lovEukcNi6tVIY7cHwEbfVe7Nw3IN2/eF0dHn+l S6bv4MmwKq35LSE8vaNLx/7q3n4Ro4vE6BuO4Ri316ggTWNVlQcWrn+4Y3zJVVsaawH0/rEEUJrv npjeciJ8lsDLDwj82fQ//a7pH29N///fmx+oZFRqn1et+9/r83GC3RPOYjI5pdvDmIv1/UqDRdPG IJOOSZ8VKcp09yx97neaUEYSNVU4sKTRhYGxrCLwaHdChBmJZCHg8gWBzIX7nxbodn6eYzR5XWYk mVF8DuuMIy8WkNye4E1pVnSAxEtnjXUt6OqPYU59EAPhJKpLnXDaTYp2t9OsVF4ScKCE4DvsJoLt R/uhYZ2XWDKLodEkOvsn4eb3DI1R99nQCZIIiVSWQI6httwFu60M65ZUov3gIHYdGMAE/QGKVAWg nt9H3Uct5aCixIUUj6n98JAjnZnaQL70/r45oGhycvLtl3g3/+pQfv9tP04v9DC6vFzKPSbdwt1q ksufvZo39Hs/3dJF6ZjvzTQvFEBvrYuV5gmgCMN1aoIWrGl2oi5kRXc4Y3yHgOXNEI1fGGl9jnJp P/NrHIiSFARr5ns1IklQCnrdT7CrAlYME+Qs1ydfmRkMUAsCtypgw1gspyiNJfICOZmeEnF8LpPe Y8aQJvsJsMdhgouLMh732TOc5PtmHs8USv02Ap5ieoZqckzD2EbSF/RYGc1WGTyDTG4CNB5Nq3kT S+YxGE4gxSzALp6OeyKaYiu3FCzf8PyuHtQQ9Es3NjA7hFnWjfN4phCZzOic2Qj68vnlONMbwdK5 ZWiq9TNDlICaj//80V4cOjaC2mofHvmvq7/D73mQmeePywD8oxva+862EcTZyR8EHm+Z+KHlXCUg /T9nAPHW3vW0Ple0ex2MUq8J1y73YG6VnfpdIDAFPS8uFvn43llFezx9VuCY0rS1kRyjTqlY5ejQ RBbNFXYdW5nPRtLYCWoBzZV2bmOWjMTTUyJIRcAqEvBXNAKR6ZcgWnGsO65o7h5J6nsGwmkBbbS0 D3VGNdO5j5/Z+JiTnEzxeREBnGKaNolMFUG7on58MqP63V/tNsoxepS88XcTrKgkdIA6Ld1m1FrJ zgyzw4YlFXiGmp5K5+Ejceax4dPRFcHXfn7Q2EYZaooE3rSyBo0E9sipUW4f4P7MqOfri9Y1oCxk ZAkTbr5sLqsECzOIAye6JrZQKmzA2ewfSgCBTIKu2ddfsBabVP4JfKXg2at9iAQ4N/tnxgDy6VtK eWq7tmEVQYbbML/SigqfGYv43MH3OoZz+v4YQdIGMMDVBFP92jjkMSvN0zPp1nFBPh7tSWJls1vp 3W03yRs82j6GbYt9eOL1cSxrcikjdQ2n9Z2MaqV+gsNI1n12ZM5JLJEg6LGgPGDl+zw2ZokFDR65 x4ExP/wuszzGiZ4YFjR6sf3ACC5YUY4IM0mEkV8ZcjC6M6gpdZI4cUkCR+WUxr1ui0C0cAkyI6Ra ggDAaLUL8N2HhrD3eFjrJFN5/Pq5Dsnr3MYgnA4zM1IWi1pLsGNfP0oDDhrFUfT0R9HP1u99NyzS dl/+31fxF7ctZ3VQz7GBZjTX+LGbMuH3OptIvqUA2v9gAszM/lnXMWaAYQAh8AUKZso/Rfz0bOQL /HMGkIu0HUVoKrVifpUVDSVmLhb4HUzFfrr4ZAEHejMC1QCrezTHdS3a7sUjMc0yvmSxR5H43RdH dUw3rwsimpiivtvx0+2jmFPtIFnlT6T7r5+IY1mzB4vqnRiJ5mS8XHaRidFp0/GlmPaf3x3GkjYv pSKDZ14dgp0kI0iKbrfDJMK21rhAAaKmO+QBjPTeH06RBD4cOhXhKJwLY9y+gY9029J/Cw+yazCu 0kwGMK9yT+8f74wo8odGE+gf4d9HMsZIoNDcUvQMxGjs3Oz8VaJ7kM+rvDjZOY5YLMPjseAvb1lC PzCK13d2AdzOzsAeCsfVJLLzjz9xZgzXXtDK81DMbqEbV21rMfZZxIx0GfsL7WffxQiYTMZxFr+T ABaeA4K/MpzQ8C/4vQJAvf/ZRo9AV4QLNBJAj5kZx91IsLe0OTGn3AKX4SEcumYgRmNT+OHOKE4O ZRFn2dZKx887h/H9PMopC5cs8eI37RGl7+3HgA9fXYHf7p5gqrfh8uV+/GT7GJbR3K1pdQv05w9E 4aPx++iNNXhuX0TGMUlS3bq5DB/75imMTZ7Fe6+tRZyEOzOYZHS7UWBGKGXEX7SiBK8cGEfAY1Z6 /+ZjXTRUNlSEbHjjxASmqPV2W7E0X/+yeVidZp0PDx9dBGP/yXHJDab5Hh8N0+jlZ/RAJI7ZmK3L 1xaN3hmyU0egO/smCbYXgyNxww9IPk73MrL5eoSg7j82jC0ra3HDRa3KiBuX12DpvHIRjXiLoIvn lOG9K+qUSbqYFU73RNhEcuK/f7xH71WybLzjyrbLQm0lX1Lf4G3/XC4XDN8Xj8ffSQCmltIDg2fn TuUJuoUSMFMGAtJ86CLPAl0DQDKBiSyBB7Ck1oqlTO+MdgE7FM2LacfPpLG/K40B6vjt6+iETyfR Rq1e3kC9ZtStanbgH387gsuWevGxa8qxrzOlG0obRvCzN1XhaF8ah3pS2LKAJVA4qxLxJy+P4s6t pXjlcBR7TyeYwi34/vPD8gWXrwhi29IgfvvykJTFYi5SJMZIkL/987kCPkwPcdOWSixv9eGFfaOY iOUU+TdsrkL/aAoDo2mc7I2hcyCBl/cMY/PaCmXCbkZ5L33BxGSGJCmIGAZjLfx789R1naBz9SHs bgaB3YJEMmwYOh3P/uMjKueY7jWWP8l+/1f+Z6c01eO3qbW7k6m/o2cCW1bVMXsE8Y8f3YokwX39 0KBM4J4jQzKBL7d30zAOY05TCAtbS/HzJ4/h108cIenMy1YuLG8jATrOlfdFcLvd+NrXvob//M// xMjIyDsJwGOYx/avD0XyA5IAaf9ZLsDsWL+Aj2VkyrC8zob1TTaBNknjlp1Jf3GasheOJXHlYheB sZJAZ6X9n7+eIHencc8mmp6hHOt/ExbVOuDm9m1crzpgkZncwbTeSqLMZbrfdTIOd6NTvYGXDkbR VG7D53/cjfVzvTRxGXz76SFUsaqYV+fEj14ckp42E9Av/6gTNzMjhNkX2HlkAo0VjXj10Di27xtj RDrwzY8vxeBYBvtORPR7+/0dEWxZWoLbLqxl7W5FCaN367Iy/NX1Ldh3ckLnYrbL9rNnzrAKyFF/ a1VR0O2rY7fzwLB69GsWlTHaPZjXEMABDuJ84X93G38jXX4zbrm0DS+/3ouFrPNJBPmOMFu/WZJo fnMQN1/ShuNd4xroCQUcSvWDlJAjHWFJ2cnOMQwMT+LgiWFmHyua6gKoKPXIXOajKbaST9g+eM+K q9hc+leeS4Hv8Xjwv//7v3jPe95z3jJQYJPUH9329cw/HRmeUvkXcur+fnTEkgCBS+OlSZ9N1PYt rTb9NnAgMmU0XWTyxuJTSpVzCeazRxK4Yokb61sc2N+dlgOupg/Yw4wwyvViyQLJJC8gnS5xm+j4 81hS59BrYFo1OKDuIEGaksZvXeTDjqOTKvWYRWRAWadLEl45FGE/IY9Vc7w43pNA+7Eo1s7zKm13 DSVx8NQkljR7qeluNFc59f6zb4ygk9E9RqKU+K3MFIuMWTb42H/sY0plhnrfMqVxmj5qcJKpuVwN G9bezAzFygwBryEhdm5P09YZ0QDOILNFbYUbi9tC+OlTHYb+ayyfbp7gjWLDsiqsXFDO81qQFLCu JzF69OjxWGXqjtED1LILOEICBHwOkau7P4I1S2sU/YxCVghhfOyh9YjG0nju1U41q/7p41tfXre0 ahv7AgL/Zz/7Ge677z5KXu68BFCrl/r/iy1fS99saKlbN3dUH0AykGVUp5nuS93FWNtgRX3QjIHo FMLUdt72XdHdUmZBLSO4ZywnKaBukRAFTCQKOMxUfqQ/o3KNLl/3C/BRA5khRaoCXzPty8BxUXah 8VPpVQQ1bYyGlPyEqhLwWOgFTADm1Dilvazf9fzZvWOYX+eiUXPg0dfCIt5Kmr9fvDSINmYGRoUI feA0NbncobKOaqXr7jRWOlWzt9a4cYYSkEjmsOfEOD58+zwcOcP0eyiMGy9pRIhu/+u/Oo6P3bPY kBmWdH042jWBv3vvGhw9M4EfPHYSTQRuXlMAt1zSrJZvL6sFZgoZxXLqNgCVeCPjSfYKRmgU4+z0 RXGcrj8UdEoOnt5+RvV/a0NQA0KHO0ZYTbjVA9hzeBC/evIoli6o1OuJyTQOnySZ2S7+0Ps3xf/1 kxe2TRdZh5955hlcc801JE/+nY0g40So1ZlPmnjRpwM3/TCz0GaaFqB+EoCYKML8dmBxFevVCjPG kyy1RvNoLjWjLmCSiRuIFFDmKZY53N2ZFmj9E3l0hnPq8NEgKkPQ3OpG0ElKiCQG0wI16Dap/z9L gkqjYiABGkptqhjc9iKRgaaOpWpBpo8pTtWK16EOHut6szLGbNu4qdJBEuXRPZzCtiUh/ODZPixk qUfzpvXDjPLt++mkN1Xiqd1DOg9tBJ6/u1dVMMjHeQ1eGTpGkppA3Kc+C4+noUYTo7qtzqu2b8hn N7IECTDObZO44YImng8N/kjDB2j8uLl6+uVBB0vKjLbvG4pxH0lcsalR5JzTGJTBu+7CVmn+P/7f DiygGbz/xiXYS/0/0zeBlrog3jg8gG6uFzRGBikZNGRwV/pwyfomVFZ48M+fuOjuwcH+H23YsBHD w8Pn7wQ++OCD2LhxI+67+7aKv30+dfIzT2S9Dtu0+v+6wbOtmMCza9fAOpdNm46RHKoJ5KULHAK/ cyyPvd1ZeKhvB/syiKXOGrW9QJMj1jUDp1UNsBRUy9bDx5Yyq26BzoseSxsJmIgSnswjSpCpter+ sapRiqzwW9SV4/siWXeYLpuRe2ogTROodDw7kigpMMpAG098TQn9CV+TDDRwKaZ9lyJ8YaMHu+gL SnwWNXs6+uJ6pParIVRb5sDL+8JqHs1lz/5rv+lAVYld5SExVNrnjzMpEU6kCW6EqZ0eQMdbEXKg ZzAmz1AWsKv8C3hsauLkWXKuXliB2U5ilCS47fI5ONk1oUifJIiv7e/HQUb3yqXVWM/laz/ZCxPP o89jh2OGMAP8zng8rXv0uAJOkiaEKvqAloYQLt/aihULqrivzOO33Xzd1a+8sv3d+wDf/va3YSyx 8aG2nvoPeoGsHL7bCrRQ51fVWXX5t6NDLDEY6XescitiI0nW6cdTGJMuMyrzAseoq9XRq/DSnJSa VBZ6BIa6fJggqGOUjYPsBUS47cwlZBSp1HNFPyVBo36YVjNJ7zEj6ftZYag+H6dz91Y7VanUlFi5 qgX7TsexvMWNXdR9dh0V0e0nomzQZJTJgLOoLZXhRGXQSiKasX5hkJkgO1P3m1TmsYEksFbNC6KP mt/IEu6SNZVorHIbcqEovprmj4ZMUkAyiHx03Xj6tV5cu6VBWeDxl7pw++WtBMYlGd2+d4Df4VGU r1pUjp8/dRLHTo8h5Hcovf/2+Q5sWlFDPzCBaUBl3R6mcw/J0zsUxWGSAkZ/wWuX0QbJ/uBdqzGf FcDapbWY21SCXz51VH2BOEk+Xcht7e3trQXQx+W8o2FFs09oEO7tXvd/39vVEUVzSFGPeeVmZgLt B8tqLAjHC9L04+ziRRnpg1GmYagsVBVAX2Asav4QbElAHxd6AgJq1OkFRSg1WUC2lFsRdJl44kUa RTb4//xaO4ir1o3ze/pGM4rOiVhefQF6FH1GoGgOLer/G23g1wj8unk+dQoby+3sN0yJZAD1/lSM 4Jrw5O4RdHRMAsXTEMEsRer7M1OoD1BfYUQ0fY2XWW9+CLuPjmE1iUC54PYWvHFsFFUhh8j4fHs/ Wmq9dPtumsYUSWdB+5Ewls8LYf3iCnzvkRNsRKWwikZv7WIC/nSHJnFkWT4+dNMiZYn9TOlWGjDO D5DTn2Qm6ege14SPOJ/zMvoaTJKbL5qmLMzBfTcuVSXwvs8+hie+fw9WL65WH8GoGCL0Abv29+G1 vb247rKl2PHk/37gH/7xn/4TgOl8M1uLZpnx8c//7VeON3/0s5FoDMtrzJhP8LmW0raDgO3vz2J/ b44yU2CKn1bqDrmKUOs3oaXUIh/AKoTE4Odc2PFTM4luXgDV0BySAAKZ/xFwk8hFXdc6lAvJBnFm RsmLFFl6Bbp/LRwLUGMp6DGr7mc/QI0UTIPbFQh0Xl1EDgxRo40MkUctQWXK1D5Y6yu9n+5P4vRA kmBb8fqxCN44PsGmUVZ6nEnpVmY6I062cMv9VvXY2SZmO9sjl290AZfNCbGVy45kvQ/P7u7XsG7P YJzl12lcsKaG6d6CAyfGdJ6ZoWRa6QXk4DUhhMfJ9E9A9fdrZDDHdO7y26ntAR5LGr0s/Tasb4Sf 0b9oTinloZJEMNMDDKo3cPvVi/CjRw6httKnCSLDYwl0D0RpHEvwz9/aiYNHB1FVVYqLlpvav/SJ u7dxUunsL1im3kwC8ywLAtVz5lsYFZubrSJA53hBkb2XoJ8K5zFKJ0826g7gC5kdqnwmLSXuYkXk 8GRB6Z+RKcPmJqs5wqcoc3A9i06ESQNAbB4JZIsJhjxIswtaFZIDpmiRgaCLTMagjp+A804kIlMR 1JiiuctgeLbXz42p+9LWwXHNB1CNT3LNlogC/95La2AmoefUunhySrluRuTrpVE80jVJJ89yTP34 HEvGCMzc9gW6/6df7oXdYyWAUxrbrwzZuU1Cvf+AAdKmoEpB/p2c01dFYE1qE5MczBI+fPXr7SRH rTEwJQnhKJ8A5cROdv58GI+klBnKS91s6pTg6KlRtnZb9d2hgFMEGmAV0VDtR4JEfXbHGbn+jq4x tDWG5CWOnRpB70BEZWSCXmLX3k5Kw/pVq1au2vjy9p07AFhmgJ9tEU5LArwuu/Mbj7TvyQYWzgvZ 83juRAanx6aU4g1TU8JIX1JtQQ2deTkB99iLVP/3SwIg8PIFOXuRYXb6WCwtfedzmTOSZEqP+s1B kgBF8jSFRVqPESyCcVsZQhpHrVcZYMlZYhWglX4LyzabysNR9gOO9qbUdBuJ5BilFoxO5rC4wUXi FNgUcgHTUMbY2zGpUcH+0bTatWSLKoUgM0J1iU3O/3DnpPaxqMlnOH1F7tBYCi6SoWcogS6WhOsW lWrA53hXBA30Bd99rAPLWOPbbMUiJXWexHDqHPvcVhErRiAWNAV1MQcAIgkjXxmnhGnex9c0gHLy TSwJNbJIYlACSIq0ho7//XvtNIA2jf139kVQXe5hZjNrxlDPQJQZwE9CpfAf39mJVfQCFaVugt+L ZQursGBuPQpjr3znS5//5AdnZCDDJa9sMEuAlqb6+h8/d/jkK/0O247TKY3B1wdM8gCcC6ASjqlb Oh8hcAOTBT2OMStEFaG6/Ku2c6j1qnMg1oZcik441EzScK5OvnPmwtJlTO8dgxl9buXCfWhSSMIo 61z0FCwDd5+MGZWDZPskXf+JvhQibNrApFvRClCaPk3UqGDaznG/lAmVlBw1JMhWjeItbvJoWLi2 zE4C5jSriG1iARXyWvhZFkta/OrrHz4dlWRQ3xXJlSUONYrKg5IBARrwWJWRSgI2GcAX6AnWLCzD PsrDlpVV8gxsG7NScGloN8vljSPDav4Y4/+nO8dxH72Aod+vsDPIwRxF9XGmfxf9RCdLwKJiYCfB bKzx6z1jbKCbPqKsxMmGVJ3k9Os/eUOktVBaGMzYsKIW7QcHsHFlHRwOJ31WNvLX91+5ZWBwuAdA 7u0EKKosLw3890+eeX7I3LzAa5marvUXFzHCFdUxpmuOzxdJ3wl0PFsgODJQyEzpkQsEKtOtfNXM tHGdWD6dmauHWdnRc5fqdcmPor7cZ9b7HIeXYeTEEBGKZpJgqSGkyB+cyFFq6PnJK+6P5Vd+5oJU 56ZxzfhdEc+kCZbQv+qQTeP0nAegoWDuT/6BESkZYUbQflguijClBDbDzzv7Y+zouZQVmF1IIKcq AJtBMIJCudCgz4GT4+z6BWcmrkCE9Lgs0nsDvFLW/iSEUjTbvBrjLw+59DgwOInyMg+zCbuhI3G4 nJbpXE69DlYMVeo5YBoaoOoeiJAIFfpbOEQ8vedAH5bTCLpdNlDrMYfVQP8wy0RqrcViLpiRHP3S Jx+4rrOr54w8AJe3EIALykpDpbWV5TX5QsHMADDbHc7/V7x1ICkSw0BJ3lSJr/El/sUHeAMvuL1c adOMu0+yx5tVt5FtqmlZiSpbZDg5jv8kEYWExV6K0Exj36jTNCtJo4jVedYKqPZegya62IMBdpvB sDs0DnPklaIxQKoth20Twh+OYqpArUKhaq9f9B4ik6HCuLB7Y1CiCRDePiCjNGywVxV1+hXH2pRA r+19QPeJy7g5OuLRhPMMWbxUVS6DGPatwjXiR8WIqHMtzgpQRd1WzjVy24bDe7b8pSeKmcdBB8wM JyclcuJAQRBu1uOjUklOzutfv37/Pf/+8+fy3H+zKOTR4VA6yiPaPeoje6zlke+llNz3Jh1Q+Vgw Wb/o70yZna5zIlnfakJKR13IYLaRFrparfTs7EynadJYO8YhCwC9vr6WiAVcJT3A3L7VPJ7at74v GoAAX2InPr5kaFJ/nvPiofrfRulmsynr9drie2MzE5JaSjFXuby8lP1+j+12i91ux/hCKemlH7XO fUn848GX57x8cN5RzzfVPcI/BJKXU7dpHngAAAAASUVORK5CYII= "
       id="image219" />
    <path
       id="path5111"
       d="m 32.424696,13.572851 a 3.576363,3.576363 0 0 0 -4.374021,4.378779 l -7.443215,7.549176 a 3.5751725,3.5751725 0 0 0 -4.584748,3.427547 3.5716009,3.5716009 0 1 0 6.997957,-1.013146 l 7.549174,-7.443216 a 3.576363,3.576363 0 0 0 4.382354,-4.37402 L 32.402075,18.646905 30.309116,18.213537 29.87575,16.12177 Z m -10.737423,15.91743 0.288117,-0.561928 -0.288117,-0.560744 -0.03105,-0.629789 -0.529786,-0.341708 -0.341709,-0.529788 -0.629793,-0.03105 -0.56074,-0.288116 -0.56074,0.288116 -0.629794,0.03105 -0.341663,0.529788 -0.529787,0.341663 -0.03105,0.629792 -0.288117,0.560742 0.288117,0.560745 0.03105,0.629792 0.529787,0.341664 0.341663,0.529786 0.629794,0.03105 0.56074,0.288116 0.56074,-0.288116 0.629793,-0.03105 0.341709,-0.529786 0.529786,-0.341664 0.03105,-0.629792 z"
       fill-rule="evenodd"
       style="fill:#f6f5f4;stroke-width:1.19053" />
  </g>
</svg>
